Report Exercise Chapter 9
…
  train_performance <- eval_model_metrics(mod_knn, daily_fluxes_train)
  test_performance <- eval_model_metrics(mod_knn, daily_fluxes_test)
  metrics_train <- metrics_train |> add_row(k = k, R2 = train_performance$R2, MAE = train_performance$MAE)
  metrics_test <- metrics_test |> add_row(k = k, R2 = test_performance$R2, MAE = test_performance$MAE)
}

metrics_train

## # A tibble: 23 × 3
##        k    R2   MAE
##    <dbl> <dbl> <dbl>
##  1     1 1     0    
##  2     2 0.877 0.727
##  3     3 0.834 0.849
##  4     4 0.811 0.908
##  5     5 0.797 0.938
##  6     8 0.777 0.986
##  7    10 0.771 0.997
##  8    12 0.766 1.01 
##  9    14 0.762 1.02 
## 10    16 0.759 1.03 
## # ℹ 13 more rows

metrics_test

## # A tibble: 23 × 3
##        k    R2   MAE
##    <dbl> <dbl> <dbl>
##  1     1 0.512  1.53
##  2     2 0.598  1.33
##  3     3 0.637  1.25
##  4     4 0.652  1.22
##  5     5 0.665  1.19
##  6     8 0.678  1.16
##  7    10 0.682  1.15
##  8    12 0.687  1.14
##  9    14 0.689  1.14
## 10    16 0.691  1.13
## # ℹ 13 more rows
…
